%YAML 1.1
%TAG !u! tag:unity3d.com,2011:
--- !u!21 &2100000
Material:
  serializedVersion: 6
  m_ObjectHideFlags: 0
  m_PrefabParentObject: {fileID: 0}
  m_PrefabInternal: {fileID: 0}
  m_Name: Day Sun High EpicDenseClouds
  m_Shader: {fileID: 10700, guid: 0000000000000000f000000000000000, type: 0}
  m_ShaderKeywords: 
  m_LightmapFlags: 5
  m_CustomRenderQueue: -1
  stringTagMap: {}
  m_SavedProperties:
    serializedVersion: 2
    m_TexEnvs:
      data:
        first:
          name: _MainTex
        second:
          m_Texture: {fileID: 0}
          m_Scale: {x: 1, y: 1}
          m_Offset: {x: 0, y: 0}
      data:
        first:
          name: _FrontTex
        second:
          m_Texture: {fileID: 2800000, guid: 2892b1297cd4f4280b89a6c2321d0417, type: 3}
          m_Scale: {x: 1, y: 1}
          m_Offset: {x: 0, y: 0}
      data:
        first:
          name: _BackTex
        second:
          m_Texture: {fileID: 2800000, guid: 741a677a300dd466aaed96052fabe64a, type: 3}
          m_Scale: {x: 1, y: 1}
          m_Offset: {x: 0, y: 0}
      data:
        first:
          name: _LeftTex
        second:
          m_Texture: {fileID: 2800000, guid: 6f5f35a40d2d444cb8aa7cb8b37d9819, type: 3}
          m_Scale: {x: 1, y: 1}
          m_Offset: {x: 0, y: 0}
      data:
        first:
          name: _RightTex
        second:
          m_Texture: {fileID: 2800000, guid: d34a611612aa54413bf46ce06509a1d6, type: 3}
          m_Scale: {x: 1, y: 1}
          m_Offset: {x: 0, y: 0}
      data:
        first:
          name: _UpTex
        second:
          m_Texture: {fileID: 2800000, guid: 51b6cdeeefb9441269e4c969fdcddf0a, type: 3}
          m_Scale: {x: 1, y: 1}
          m_Offset: {x: 0, y: 0}
      data:
        first:
          name: _DownTex
        second:
          m_Texture: {fileID: 2800000, guid: 01f95c4cdff6446c5b28ab1719684b09, type: 3}
          m_Scale: {x: 1, y: 1}
          m_Offset: {x: 0, y: 0}
    m_Floats: {}
    m_Colors:
      data:
        first:
          name: _Color
        second: {r: 1, g: 1, b: 1, a: 1}
