%YAML 1.1
%TAG !u! tag:unity3d.com,2011:
--- !u!21 &2100000
Material:
  serializedVersion: 6
  m_ObjectHideFlags: 0
  m_PrefabParentObject: {fileID: 0}
  m_PrefabInternal: {fileID: 0}
  m_Name: AllSkyDemoEnv_Landscape
  m_Shader: {fileID: 4800000, guid: 49f4ed566e0894473a805cf78cadbff3, type: 3}
  m_ShaderKeywords: 
  m_LightmapFlags: 5
  m_CustomRenderQueue: -1
  stringTagMap: {}
  m_SavedProperties:
    serializedVersion: 2
    m_TexEnvs:
      data:
        first:
          name: _MainTex
        second:
          m_Texture: {fileID: 0}
          m_Scale: {x: 1, y: 1}
          m_Offset: {x: 0, y: 0}
    m_Floats:
      data:
        first:
          name: _VertexOcclusion
        second: 1.5
      data:
        first:
          name: _SnowLevel
        second: 0.25
      data:
        first:
          name: _SpecularPower
        second: 0.03
      data:
        first:
          name: _RimAmount
        second: 3.93
    m_Colors:
      data:
        first:
          name: _Color
        second: {r: 0.16632795, g: 0.22592068, b: 0.37574953, a: 0.83367205}
      data:
        first:
          name: _DiffuseColour
        second: {r: 0.71323526, g: 0.66766346, b: 0.61883646, a: 1}
      data:
        first:
          name: _SnowColour
        second: {r: 0.80449826, g: 0.8630235, b: 0.88235295, a: 1}
      data:
        first:
          name: _SnowSpecularColour
        second: {r: 0.75, g: 0.75, b: 0.75, a: 1}
      data:
        first:
          name: _SpecularColour
        second: {r: 0.3602941, g: 0.3602941, b: 0.3602941, a: 1}
      data:
        first:
          name: _RimColour
        second: {r: 0, g: 0, b: 0, a: 1}
