%YAML 1.1
%TAG !u! tag:unity3d.com,2011:
--- !u!1 &100000
GameObject:
  m_ObjectHideFlags: 0
  m_PrefabParentObject: {fileID: 0}
  m_PrefabInternal: {fileID: 100100000}
  serializedVersion: 4
  m_Component:
  - 4: {fileID: 400000}
  - 114: {fileID: 11400002}
  - 114: {fileID: 11400000}
  m_Layer: 0
  m_Name: Exploder
  m_TagString: Untagged
  m_Icon: {fileID: 0}
  m_NavMeshLayer: 0
  m_StaticEditorFlags: 0
  m_IsActive: 1
--- !u!4 &400000
Transform:
  m_ObjectHideFlags: 1
  m_PrefabParentObject: {fileID: 0}
  m_PrefabInternal: {fileID: 100100000}
  m_GameObject: {fileID: 100000}
  m_LocalRotation: {x: 0, y: 0.6877847, z: 0, w: 0.7259148}
  m_LocalPosition: {x: 0, y: 12.38, z: 9.72}
  m_LocalScale: {x: 7.1, y: 1, z: 1}
  m_LocalEulerAnglesHint: {x: 0, y: 0, z: 0}
  m_Children: []
  m_Father: {fileID: 0}
  m_RootOrder: 0
--- !u!114 &11400000
MonoBehaviour:
  m_ObjectHideFlags: 1
  m_PrefabParentObject: {fileID: 0}
  m_PrefabInternal: {fileID: 100100000}
  m_GameObject: {fileID: 100000}
  m_Enabled: 1
  m_EditorHideFlags: 0
  m_Script: {fileID: 11500000, guid: 9f248d80a6128a34cab81cb1cd3ebe15, type: 3}
  m_Name: 
  m_EditorClassIdentifier: 
--- !u!114 &11400002
MonoBehaviour:
  m_ObjectHideFlags: 1
  m_PrefabParentObject: {fileID: 0}
  m_PrefabInternal: {fileID: 100100000}
  m_GameObject: {fileID: 100000}
  m_Enabled: 1
  m_EditorHideFlags: 0
  m_Script: {fileID: 11500000, guid: b945f9aa6e0d3de46ab1fabcf3b510b6, type: 3}
  m_Name: 
  m_EditorClassIdentifier: 
  DontUseTag: 0
  Radius: 20
  CubeRadius: {x: 5, y: 5, z: 5}
  UseCubeRadius: 0
  ForceVector: {x: 0, y: 1, z: 0}
  UseForceVector: 1
  Force: 35
  FrameBudget: 15
  TargetFragments: 50
  ThreadOption: 2
  DeactivateOptions: 1
  DeactivateTimeout: 2
  FadeoutOptions: 2
  MeshColliders: 0
  ExplodeSelf: 0
  DisableRadiusScan: 0
  HideSelf: 0
  DestroyOriginalObject: 0
  ExplodeFragments: 1
  UniformFragmentDistribution: 0
  SplitMeshIslands: 0
  DisableTriangulation: 0
  FragmentPoolSize: 500
  FragmentPrefab: {fileID: 0}
  Use2DCollision: 0
  CuttingStyle: 0
  SFXOptions:
    ExplosionSoundClip: {fileID: 0}
    FragmentSoundClip: {fileID: 0}
    FragmentEmitter: {fileID: 0}
    HitSoundTimeout: 0.3
    EmitersMax: 100
    ParticleTimeout: -1
  FragmentOptions:
    FreezePositionX: 0
    FreezePositionY: 0
    FreezePositionZ: 0
    FreezeRotationX: 0
    FreezeRotationY: 0
    FreezeRotationZ: 0
    Layer: Default
    MaxVelocity: 100
    InheritParentPhysicsProperty: 0
    Mass: 5
    UseGravity: 1
    DisableColliders: 0
    AngularVelocity: 1
    MaxAngularVelocity: 7
    AngularVelocityVector: {x: 0, y: 1, z: 0}
    RandomAngularVelocityVector: 0
    FragmentMaterial: {fileID: 0}
--- !u!1001 &100100000
Prefab:
  m_ObjectHideFlags: 1
  serializedVersion: 2
  m_Modification:
    m_TransformParent: {fileID: 0}
    m_Modifications: []
    m_RemovedComponents: []
  m_ParentPrefab: {fileID: 0}
  m_RootGameObject: {fileID: 100000}
  m_IsPrefabParent: 1
