%YAML 1.1
%TAG !u! tag:unity3d.com,2011:
--- !u!21 &2100000
Material:
  serializedVersion: 6
  m_ObjectHideFlags: 0
  m_PrefabParentObject: {fileID: 0}
  m_PrefabInternal: {fileID: 0}
  m_Name: AllSky_Overcast3_High
  m_Shader: {fileID: 10700, guid: 0000000000000000f000000000000000, type: 0}
  m_ShaderKeywords: 
  m_LightmapFlags: 5
  m_CustomRenderQueue: -1
  stringTagMap: {}
  m_SavedProperties:
    serializedVersion: 2
    m_TexEnvs:
      data:
        first:
          name: _MainTex
        second:
          m_Texture: {fileID: 0}
          m_Scale: {x: 1, y: 1}
          m_Offset: {x: 0, y: 0}
      data:
        first:
          name: _FrontTex
        second:
          m_Texture: {fileID: 2800000, guid: 32a146c728d7f4bfa9ebaaa015ae39a8, type: 3}
          m_Scale: {x: 1, y: 1}
          m_Offset: {x: 0, y: 0}
      data:
        first:
          name: _BackTex
        second:
          m_Texture: {fileID: 2800000, guid: 68e4d2917f80347d2b2086c6058d4cb4, type: 3}
          m_Scale: {x: 1, y: 1}
          m_Offset: {x: 0, y: 0}
      data:
        first:
          name: _LeftTex
        second:
          m_Texture: {fileID: 2800000, guid: c33d702da0e5a4ee4ac6b7b6cf46c262, type: 3}
          m_Scale: {x: 1, y: 1}
          m_Offset: {x: 0, y: 0}
      data:
        first:
          name: _RightTex
        second:
          m_Texture: {fileID: 2800000, guid: c04ac60c30ccc4190b76a2a5e1e7c463, type: 3}
          m_Scale: {x: 1, y: 1}
          m_Offset: {x: 0, y: 0}
      data:
        first:
          name: _UpTex
        second:
          m_Texture: {fileID: 2800000, guid: a858c80b9a72f4ea99017dc3f2a7ac81, type: 3}
          m_Scale: {x: 1, y: 1}
          m_Offset: {x: 0, y: 0}
      data:
        first:
          name: _DownTex
        second:
          m_Texture: {fileID: 2800000, guid: c5375f354470b45f7b0fea108d4267dd, type: 3}
          m_Scale: {x: 1, y: 1}
          m_Offset: {x: 0, y: 0}
    m_Floats: {}
    m_Colors:
      data:
        first:
          name: _Color
        second: {r: 1, g: 1, b: 1, a: 1}
