%YAML 1.1
%TAG !u! tag:unity3d.com,2011:
--- !u!74 &7400000
AnimationClip:
  m_ObjectHideFlags: 0
  m_PrefabParentObject: {fileID: 0}
  m_PrefabInternal: {fileID: 0}
  m_Name: ExplosionDistortion
  serializedVersion: 6
  m_Legacy: 0
  m_Compressed: 0
  m_UseHighQualityCurve: 1
  m_RotationCurves: []
  m_CompressedRotationCurves: []
  m_EulerCurves: []
  m_PositionCurves: []
  m_ScaleCurves:
  - curve:
      serializedVersion: 2
      m_Curve:
      - time: 0
        value: {x: 0, y: 0, z: 0}
        inSlope: {x: 16, y: 16, z: 16}
        outSlope: {x: 16, y: 16, z: 16}
        tangentMode: 0
      - time: 0.25
        value: {x: 4, y: 4, z: 4}
        inSlope: {x: 0.3390597, y: 0.49001756, z: 0.25881875}
        outSlope: {x: 0.3390597, y: 0.49001756, z: 0.25881875}
        tangentMode: 0
      - time: 0.6666667
        value: {x: 8, y: 8, z: 8}
        inSlope: {x: 9.599999, y: 9.599999, z: 9.599999}
        outSlope: {x: 9.599999, y: 9.599999, z: 9.599999}
        tangentMode: 0
      m_PreInfinity: 2
      m_PostInfinity: 2
      m_RotationOrder: 4
    path: 
  m_FloatCurves:
  - curve:
      serializedVersion: 2
      m_Curve:
      - time: 0
        value: 1
        inSlope: 0
        outSlope: 0
        tangentMode: 10
      - time: 0.48333332
        value: 1
        inSlope: -2.7272723
        outSlope: -2.7272723
        tangentMode: 10
      - time: 0.6666667
        value: 0
        inSlope: -5.4545445
        outSlope: -5.4545445
        tangentMode: 10
      m_PreInfinity: 2
      m_PostInfinity: 2
      m_RotationOrder: 4
    attribute: material._Opacity
    path: DistortionQuad
    classID: 23
    script: {fileID: 0}
  m_PPtrCurves: []
  m_SampleRate: 60
  m_WrapMode: 0
  m_Bounds:
    m_Center: {x: 0, y: 0, z: 0}
    m_Extent: {x: 0, y: 0, z: 0}
  m_ClipBindingConstant:
    genericBindings:
    - path: 0
      attribute: 3
      script: {fileID: 0}
      classID: 4
      customType: 0
      isPPtrCurve: 0
    - path: 494454884
      attribute: 2282272135
      script: {fileID: 0}
      classID: 23
      customType: 22
      isPPtrCurve: 0
    pptrCurveMapping: []
  m_AnimationClipSettings:
    serializedVersion: 2
    m_AdditiveReferencePoseClip: {fileID: 0}
    m_AdditiveReferencePoseTime: 0
    m_StartTime: 0
    m_StopTime: 0.6666667
    m_OrientationOffsetY: 0
    m_Level: 0
    m_CycleOffset: 0
    m_HasAdditiveReferencePose: 0
    m_LoopTime: 0
    m_LoopBlend: 0
    m_LoopBlendOrientation: 0
    m_LoopBlendPositionY: 0
    m_LoopBlendPositionXZ: 0
    m_KeepOriginalOrientation: 0
    m_KeepOriginalPositionY: 1
    m_KeepOriginalPositionXZ: 0
    m_HeightFromFeet: 0
    m_Mirror: 0
  m_EditorCurves:
  - curve:
      serializedVersion: 2
      m_Curve:
      - time: 0
        value: 0
        inSlope: 16
        outSlope: 16
        tangentMode: 10
      - time: 0.25
        value: 4
        inSlope: 0.3390597
        outSlope: 0.3390597
        tangentMode: 0
      - time: 0.6666667
        value: 8
        inSlope: 9.599999
        outSlope: 9.599999
        tangentMode: 10
      m_PreInfinity: 2
      m_PostInfinity: 2
      m_RotationOrder: 4
    attribute: m_LocalScale.x
    path: 
    classID: 4
    script: {fileID: 0}
  - curve:
      serializedVersion: 2
      m_Curve:
      - time: 0
        value: 0
        inSlope: 16
        outSlope: 16
        tangentMode: 10
      - time: 0.25
        value: 4
        inSlope: 0.49001756
        outSlope: 0.49001756
        tangentMode: 0
      - time: 0.6666667
        value: 8
        inSlope: 9.599999
        outSlope: 9.599999
        tangentMode: 10
      m_PreInfinity: 2
      m_PostInfinity: 2
      m_RotationOrder: 4
    attribute: m_LocalScale.y
    path: 
    classID: 4
    script: {fileID: 0}
  - curve:
      serializedVersion: 2
      m_Curve:
      - time: 0
        value: 0
        inSlope: 16
        outSlope: 16
        tangentMode: 10
      - time: 0.25
        value: 4
        inSlope: 0.25881875
        outSlope: 0.25881875
        tangentMode: 0
      - time: 0.6666667
        value: 8
        inSlope: 9.599999
        outSlope: 9.599999
        tangentMode: 10
      m_PreInfinity: 2
      m_PostInfinity: 2
      m_RotationOrder: 4
    attribute: m_LocalScale.z
    path: 
    classID: 4
    script: {fileID: 0}
  - curve:
      serializedVersion: 2
      m_Curve:
      - time: 0
        value: 1
        inSlope: 0
        outSlope: 0
        tangentMode: 10
      - time: 0.48333332
        value: 1
        inSlope: -2.7272723
        outSlope: -2.7272723
        tangentMode: 10
      - time: 0.6666667
        value: 0
        inSlope: -5.4545445
        outSlope: -5.4545445
        tangentMode: 10
      m_PreInfinity: 2
      m_PostInfinity: 2
      m_RotationOrder: 4
    attribute: material._Opacity
    path: DistortionQuad
    classID: 23
    script: {fileID: 0}
  m_EulerEditorCurves: []
  m_HasGenericRootTransform: 0
  m_HasMotionFloatCurves: 0
  m_GenerateMotionCurves: 0
  m_Events: []
