%YAML 1.1
%TAG !u! tag:unity3d.com,2011:
--- !u!74 &7400000
AnimationClip:
  m_ObjectHideFlags: 0
  m_PrefabParentObject: {fileID: 0}
  m_PrefabInternal: {fileID: 0}
  m_Name: MuzzleFlash
  serializedVersion: 6
  m_Legacy: 0
  m_Compressed: 0
  m_UseHighQualityCurve: 1
  m_RotationCurves:
  - curve:
      serializedVersion: 2
      m_Curve:
      - time: 0
        value: {x: 0, y: 0, z: -.00429832935, w: .999990761}
        inSlope: {x: 0, y: 0, z: 1.52594459, w: -.0128459921}
        outSlope: {x: 0, y: 0, z: 1.52594459, w: -.0128459921}
        tangentMode: 0
      - time: .0166666675
        value: {x: 0, y: 0, z: .0211340822, w: .999776661}
        inSlope: {x: 0, y: 0, z: 1.6084348, w: -.0362259112}
        outSlope: {x: 0, y: 0, z: 1.6084348, w: -.0362259112}
        tangentMode: 0
      - time: .0333333351
        value: {x: 0, y: 0, z: .0493161678, w: .998783231}
        inSlope: {x: 0, y: 0, z: 1.64837337, w: -.08024811}
        outSlope: {x: 0, y: 0, z: 1.64837337, w: -.08024811}
        tangentMode: 0
      - time: .0500000045
        value: {x: 0, y: 0, z: .0760798678, w: .997101724}
        inSlope: {x: 0, y: 0, z: 1.43902111, w: -.105795264}
        outSlope: {x: 0, y: 0, z: 1.43902111, w: -.105795264}
        tangentMode: 0
      - time: .0666666701
        value: {x: 0, y: 0, z: .0972835422, w: .995256722}
        inSlope: {x: 0, y: 0, z: .982296288, w: -.0912183598}
        outSlope: {x: 0, y: 0, z: .982296288, w: -.0912183598}
        tangentMode: 0
      - time: .0833333358
        value: {x: 0, y: 0, z: .108823076, w: .994061112}
        inSlope: {x: 0, y: 0, z: .454039246, w: -.0478720702}
        outSlope: {x: 0, y: 0, z: .454039246, w: -.0478720702}
        tangentMode: 0
      - time: .100000001
        value: {x: 0, y: 0, z: .112418182, w: .993660986}
        inSlope: {x: 0, y: 0, z: .0601467527, w: -.00664472627}
        outSlope: {x: 0, y: 0, z: .0601467527, w: -.00664472627}
        tangentMode: 0
      - time: .116666667
        value: {x: 0, y: 0, z: .110827968, w: .993839622}
        inSlope: {x: 0, y: 0, z: -.327094853, w: .0351905711}
        outSlope: {x: 0, y: 0, z: -.327094853, w: .0351905711}
        tangentMode: 0
      - time: .13333334
        value: {x: 0, y: 0, z: .101515017, w: .994834006}
        inSlope: {x: 0, y: 0, z: -.867284656, w: .0839817449}
        outSlope: {x: 0, y: 0, z: -.867284656, w: .0839817449}
        tangentMode: 0
      - time: .150000006
        value: {x: 0, y: 0, z: .081918478, w: .996639013}
        inSlope: {x: 0, y: 0, z: -1.56200123, w: .118280068}
        outSlope: {x: 0, y: 0, z: -1.56200123, w: .118280068}
        tangentMode: 0
      - time: .166666672
        value: {x: 0, y: 0, z: .0494483151, w: .998776674}
        inSlope: {x: 0, y: 0, z: -3.09760928, w: .0940007046}
        outSlope: {x: 0, y: 0, z: -3.09760928, w: .0940007046}
        tangentMode: 0
      - time: .183333337
        value: {x: 0, y: 0, z: -.0213351566, w: .99977237}
        inSlope: {x: 0, y: 0, z: -5.13735723, w: -.186649576}
        outSlope: {x: 0, y: 0, z: -5.13735723, w: -.186649576}
        tangentMode: 0
      - time: .200000003
        value: {x: 0, y: 0, z: -.121796906, w: .992555022}
        inSlope: {x: 0, y: 0, z: -5.46136856, w: -.62017864}
        outSlope: {x: 0, y: 0, z: -5.46136856, w: -.62017864}
        tangentMode: 0
      - time: .216666669
        value: {x: 0, y: 0, z: -.203380749, w: .979099751}
        inSlope: {x: 0, y: 0, z: -2.9355309, w: -.509274662}
        outSlope: {x: 0, y: 0, z: -2.9355309, w: -.509274662}
        tangentMode: 0
      - time: .233333334
        value: {x: 0, y: 0, z: -.219647929, w: .975579202}
        inSlope: {x: 0, y: 0, z: 2.52269936, w: .412788451}
        outSlope: {x: 0, y: 0, z: 2.52269936, w: .412788451}
        tangentMode: 0
      - time: .25
        value: {x: 0, y: 0, z: -.119290777, w: .992859364}
        inSlope: {x: 0, y: 0, z: 8.06039047, w: .696540952}
        outSlope: {x: 0, y: 0, z: 8.06039047, w: .696540952}
        tangentMode: 0
      - time: .266666681
        value: {x: 0, y: 0, z: .0490318686, w: .998797238}
        inSlope: {x: 0, y: 0, z: 8.83429813, w: -.249720603}
        outSlope: {x: 0, y: 0, z: 8.83429813, w: -.249720603}
        tangentMode: 0
      - time: .283333361
        value: {x: 0, y: 0, z: .175186068, w: .984535336}
        inSlope: {x: 0, y: 0, z: 5.46016979, w: -.775572598}
        outSlope: {x: 0, y: 0, z: 5.46016979, w: -.775572598}
        tangentMode: 0
      - time: .300000042
        value: {x: 0, y: 0, z: .231037676, w: .972944796}
        inSlope: {x: 0, y: 0, z: 2.66222525, w: -.59977901}
        outSlope: {x: 0, y: 0, z: 2.66222525, w: -.59977901}
        tangentMode: 0
      - time: .316666722
        value: {x: 0, y: 0, z: .263926983, w: .964542687}
        inSlope: {x: 0, y: 0, z: 1.43323004, w: -.37797302}
        outSlope: {x: 0, y: 0, z: 1.43323004, w: -.37797302}
        tangentMode: 0
      - time: .333333403
        value: {x: 0, y: 0, z: .278812051, w: .960345685}
        inSlope: {x: 0, y: 0, z: .492761612, w: -.139365673}
        outSlope: {x: 0, y: 0, z: .492761612, w: -.139365673}
        tangentMode: 0
      - time: .350000083
        value: {x: 0, y: 0, z: .280352384, w: .959897161}
        inSlope: {x: 0, y: 0, z: -.173940212, w: .0499301739}
        outSlope: {x: 0, y: 0, z: -.173940212, w: .0499301739}
        tangentMode: 0
      - time: .366666764
        value: {x: 0, y: 0, z: .273014039, w: .962010026}
        inSlope: {x: 0, y: 0, z: -.574492931, w: .161604747}
        outSlope: {x: 0, y: 0, z: -.574492931, w: .161604747}
        tangentMode: 0
      - time: .383333445
        value: {x: 0, y: 0, z: .261202604, w: .96528399}
        inSlope: {x: 0, y: 0, z: -.709863007, w: .192087129}
        outSlope: {x: 0, y: 0, z: -.709863007, w: .192087129}
        tangentMode: 0
      - time: .400000125
        value: {x: 0, y: 0, z: .249351919, w: .968412936}
        inSlope: {x: 0, y: 0, z: -.577590883, w: .150144562}
        outSlope: {x: 0, y: 0, z: -.577590883, w: .150144562}
        tangentMode: 0
      - time: .416666806
        value: {x: 0, y: 0, z: .241949558, w: .970288813}
        inSlope: {x: 0, y: 0, z: -.175376564, w: .0445942655}
        outSlope: {x: 0, y: 0, z: -.175376564, w: .0445942655}
        tangentMode: 0
      - time: .433333337
        value: {x: 0, y: 0, z: .243506014, w: .969899416}
        inSlope: {x: 0, y: 0, z: .0933881253, w: -.0233640186}
        outSlope: {x: 0, y: 0, z: .0933881253, w: -.0233640186}
        tangentMode: 0
      m_PreInfinity: 2
      m_PostInfinity: 2
    path: 
  m_CompressedRotationCurves: []
  m_PositionCurves: []
  m_ScaleCurves:
  - curve:
      serializedVersion: 2
      m_Curve:
      - time: 0
        value: {x: 1, y: 1, z: 0}
        inSlope: {x: 0, y: 0, z: 29.7499981}
        outSlope: {x: 0, y: 0, z: 29.7499981}
        tangentMode: 0
      - time: .0333333351
        value: {x: 1, y: 1, z: .991666675}
        inSlope: {x: 0, y: 0, z: 14.749999}
        outSlope: {x: 0, y: 0, z: 14.749999}
        tangentMode: 0
      - time: .0666666701
        value: {x: 1, y: 1, z: .983333349}
        inSlope: {x: 0, y: 0, z: -4.06249952}
        outSlope: {x: 0, y: 0, z: -4.06249952}
        tangentMode: 0
      - time: .13333334
        value: {x: 1, y: 1, z: .458333343}
        inSlope: {x: 0, y: 0, z: -4.76837158e-07}
        outSlope: {x: 0, y: 0, z: -4.76837158e-07}
        tangentMode: 0
      - time: .200000003
        value: {x: 1, y: 1, z: .98333323}
        inSlope: {x: 0, y: 0, z: 3.97321367}
        outSlope: {x: 0, y: 0, z: 3.97321367}
        tangentMode: 0
      - time: .433333337
        value: {x: 1, y: 1, z: 1}
        inSlope: {x: 0, y: 0, z: .0714290142}
        outSlope: {x: 0, y: 0, z: .0714290142}
        tangentMode: 0
      m_PreInfinity: 2
      m_PostInfinity: 2
    path: 
  m_FloatCurves:
  - curve:
      serializedVersion: 2
      m_Curve:
      - time: 0
        value: 1
        inSlope: Infinity
        outSlope: Infinity
        tangentMode: 31
      - time: .0500000007
        value: 0
        inSlope: Infinity
        outSlope: Infinity
        tangentMode: 31
      - time: .150000006
        value: 1
        inSlope: Infinity
        outSlope: Infinity
        tangentMode: 31
      - time: .349999994
        value: 0
        inSlope: Infinity
        outSlope: Infinity
        tangentMode: 31
      - time: .433333337
        value: 1
        inSlope: Infinity
        outSlope: Infinity
        tangentMode: 31
      m_PreInfinity: 2
      m_PostInfinity: 2
    attribute: m_IsActive
    path: muzzleflashmesh
    classID: 1
    script: {fileID: 0}
  m_PPtrCurves: []
  m_SampleRate: 60
  m_WrapMode: 0
  m_Bounds:
    m_Center: {x: 0, y: 0, z: 0}
    m_Extent: {x: 0, y: 0, z: 0}
  m_ClipBindingConstant:
    genericBindings:
    - path: 0
      attribute: 2
      script: {fileID: 0}
      classID: 4
      customType: 0
      isPPtrCurve: 0
    - path: 0
      attribute: 3
      script: {fileID: 0}
      classID: 4
      customType: 0
      isPPtrCurve: 0
    - path: 1171979774
      attribute: 2086281974
      script: {fileID: 0}
      classID: 1
      customType: 0
      isPPtrCurve: 0
    pptrCurveMapping: []
  m_AnimationClipSettings:
    serializedVersion: 2
    m_StartTime: 0
    m_StopTime: .433333337
    m_OrientationOffsetY: 0
    m_Level: 0
    m_CycleOffset: 0
    m_LoopTime: 1
    m_LoopBlend: 0
    m_LoopBlendOrientation: 0
    m_LoopBlendPositionY: 0
    m_LoopBlendPositionXZ: 0
    m_KeepOriginalOrientation: 0
    m_KeepOriginalPositionY: 1
    m_KeepOriginalPositionXZ: 0
    m_HeightFromFeet: 0
    m_Mirror: 0
  m_EditorCurves:
  - curve:
      serializedVersion: 2
      m_Curve:
      - time: 0
        value: 1
        inSlope: 0
        outSlope: 0
        tangentMode: 10
      - time: .433333337
        value: 1
        inSlope: 0
        outSlope: 0
        tangentMode: 10
      m_PreInfinity: 2
      m_PostInfinity: 2
    attribute: m_LocalScale.x
    path: 
    classID: 4
    script: {fileID: 0}
  - curve:
      serializedVersion: 2
      m_Curve:
      - time: 0
        value: 1
        inSlope: 0
        outSlope: 0
        tangentMode: 10
      - time: .433333337
        value: 1
        inSlope: 0
        outSlope: 0
        tangentMode: 10
      m_PreInfinity: 2
      m_PostInfinity: 2
    attribute: m_LocalScale.y
    path: 
    classID: 4
    script: {fileID: 0}
  - curve:
      serializedVersion: 2
      m_Curve:
      - time: 0
        value: 0
        inSlope: 29.7499981
        outSlope: 29.7499981
        tangentMode: 10
      - time: .0333333351
        value: .991666675
        inSlope: 14.749999
        outSlope: 14.749999
        tangentMode: 10
      - time: .0666666701
        value: .983333349
        inSlope: -4.06249952
        outSlope: -4.06249952
        tangentMode: 10
      - time: .13333334
        value: .458333343
        inSlope: -4.76837158e-07
        outSlope: -4.76837158e-07
        tangentMode: 10
      - time: .200000003
        value: .98333323
        inSlope: 3.97321367
        outSlope: 3.97321367
        tangentMode: 10
      - time: .433333337
        value: 1
        inSlope: .0714290142
        outSlope: .0714290142
        tangentMode: 10
      m_PreInfinity: 2
      m_PostInfinity: 2
    attribute: m_LocalScale.z
    path: 
    classID: 4
    script: {fileID: 0}
  - curve:
      serializedVersion: 2
      m_Curve:
      - time: 0
        value: 0
        inSlope: 0
        outSlope: 0
        tangentMode: 0
      - time: .0166666675
        value: 0
        inSlope: 0
        outSlope: 0
        tangentMode: 0
      - time: .0333333351
        value: 0
        inSlope: 0
        outSlope: 0
        tangentMode: 0
      - time: .0500000045
        value: 0
        inSlope: 0
        outSlope: 0
        tangentMode: 0
      - time: .0666666701
        value: 0
        inSlope: 0
        outSlope: 0
        tangentMode: 0
      - time: .0833333358
        value: 0
        inSlope: 0
        outSlope: 0
        tangentMode: 0
      - time: .100000001
        value: 0
        inSlope: 0
        outSlope: 0
        tangentMode: 0
      - time: .116666667
        value: 0
        inSlope: 0
        outSlope: 0
        tangentMode: 0
      - time: .13333334
        value: 0
        inSlope: 0
        outSlope: 0
        tangentMode: 0
      - time: .150000006
        value: 0
        inSlope: 0
        outSlope: 0
        tangentMode: 0
      - time: .166666672
        value: 0
        inSlope: 0
        outSlope: 0
        tangentMode: 0
      - time: .183333337
        value: 0
        inSlope: 0
        outSlope: 0
        tangentMode: 0
      - time: .200000003
        value: 0
        inSlope: 0
        outSlope: 0
        tangentMode: 0
      - time: .216666669
        value: 0
        inSlope: 0
        outSlope: 0
        tangentMode: 0
      - time: .233333334
        value: 0
        inSlope: 0
        outSlope: 0
        tangentMode: 0
      - time: .25
        value: 0
        inSlope: 0
        outSlope: 0
        tangentMode: 0
      - time: .266666681
        value: 0
        inSlope: 0
        outSlope: 0
        tangentMode: 0
      - time: .283333361
        value: 0
        inSlope: 0
        outSlope: 0
        tangentMode: 0
      - time: .300000042
        value: 0
        inSlope: 0
        outSlope: 0
        tangentMode: 0
      - time: .316666722
        value: 0
        inSlope: 0
        outSlope: 0
        tangentMode: 0
      - time: .333333403
        value: 0
        inSlope: 0
        outSlope: 0
        tangentMode: 0
      - time: .350000083
        value: 0
        inSlope: 0
        outSlope: 0
        tangentMode: 0
      - time: .366666764
        value: 0
        inSlope: 0
        outSlope: 0
        tangentMode: 0
      - time: .383333445
        value: 0
        inSlope: 0
        outSlope: 0
        tangentMode: 0
      - time: .400000125
        value: 0
        inSlope: 0
        outSlope: 0
        tangentMode: 0
      - time: .416666806
        value: 0
        inSlope: 0
        outSlope: 0
        tangentMode: 0
      - time: .433333337
        value: 0
        inSlope: 0
        outSlope: 0
        tangentMode: 0
      m_PreInfinity: 2
      m_PostInfinity: 2
    attribute: m_LocalRotation.x
    path: 
    classID: 4
    script: {fileID: 0}
  - curve:
      serializedVersion: 2
      m_Curve:
      - time: 0
        value: 0
        inSlope: 0
        outSlope: 0
        tangentMode: 0
      - time: .0166666675
        value: 0
        inSlope: 0
        outSlope: 0
        tangentMode: 0
      - time: .0333333351
        value: 0
        inSlope: 0
        outSlope: 0
        tangentMode: 0
      - time: .0500000045
        value: 0
        inSlope: 0
        outSlope: 0
        tangentMode: 0
      - time: .0666666701
        value: 0
        inSlope: 0
        outSlope: 0
        tangentMode: 0
      - time: .0833333358
        value: 0
        inSlope: 0
        outSlope: 0
        tangentMode: 0
      - time: .100000001
        value: 0
        inSlope: 0
        outSlope: 0
        tangentMode: 0
      - time: .116666667
        value: 0
        inSlope: 0
        outSlope: 0
        tangentMode: 0
      - time: .13333334
        value: 0
        inSlope: 0
        outSlope: 0
        tangentMode: 0
      - time: .150000006
        value: 0
        inSlope: 0
        outSlope: 0
        tangentMode: 0
      - time: .166666672
        value: 0
        inSlope: 0
        outSlope: 0
        tangentMode: 0
      - time: .183333337
        value: 0
        inSlope: 0
        outSlope: 0
        tangentMode: 0
      - time: .200000003
        value: 0
        inSlope: 0
        outSlope: 0
        tangentMode: 0
      - time: .216666669
        value: 0
        inSlope: 0
        outSlope: 0
        tangentMode: 0
      - time: .233333334
        value: 0
        inSlope: 0
        outSlope: 0
        tangentMode: 0
      - time: .25
        value: 0
        inSlope: 0
        outSlope: 0
        tangentMode: 0
      - time: .266666681
        value: 0
        inSlope: 0
        outSlope: 0
        tangentMode: 0
      - time: .283333361
        value: 0
        inSlope: 0
        outSlope: 0
        tangentMode: 0
      - time: .300000042
        value: 0
        inSlope: 0
        outSlope: 0
        tangentMode: 0
      - time: .316666722
        value: 0
        inSlope: 0
        outSlope: 0
        tangentMode: 0
      - time: .333333403
        value: 0
        inSlope: 0
        outSlope: 0
        tangentMode: 0
      - time: .350000083
        value: 0
        inSlope: 0
        outSlope: 0
        tangentMode: 0
      - time: .366666764
        value: 0
        inSlope: 0
        outSlope: 0
        tangentMode: 0
      - time: .383333445
        value: 0
        inSlope: 0
        outSlope: 0
        tangentMode: 0
      - time: .400000125
        value: 0
        inSlope: 0
        outSlope: 0
        tangentMode: 0
      - time: .416666806
        value: 0
        inSlope: 0
        outSlope: 0
        tangentMode: 0
      - time: .433333337
        value: 0
        inSlope: 0
        outSlope: 0
        tangentMode: 0
      m_PreInfinity: 2
      m_PostInfinity: 2
    attribute: m_LocalRotation.y
    path: 
    classID: 4
    script: {fileID: 0}
  - curve:
      serializedVersion: 2
      m_Curve:
      - time: 0
        value: -.00429832935
        inSlope: 1.52594459
        outSlope: 1.52594459
        tangentMode: 0
      - time: .0166666675
        value: .0211340822
        inSlope: 1.6084348
        outSlope: 1.6084348
        tangentMode: 0
      - time: .0333333351
        value: .0493161678
        inSlope: 1.64837337
        outSlope: 1.64837337
        tangentMode: 0
      - time: .0500000045
        value: .0760798678
        inSlope: 1.43902111
        outSlope: 1.43902111
        tangentMode: 0
      - time: .0666666701
        value: .0972835422
        inSlope: .982296288
        outSlope: .982296288
        tangentMode: 0
      - time: .0833333358
        value: .108823076
        inSlope: .454039246
        outSlope: .454039246
        tangentMode: 0
      - time: .100000001
        value: .112418182
        inSlope: .0601467527
        outSlope: .0601467527
        tangentMode: 0
      - time: .116666667
        value: .110827968
        inSlope: -.327094853
        outSlope: -.327094853
        tangentMode: 0
      - time: .13333334
        value: .101515017
        inSlope: -.867284656
        outSlope: -.867284656
        tangentMode: 0
      - time: .150000006
        value: .081918478
        inSlope: -1.56200123
        outSlope: -1.56200123
        tangentMode: 0
      - time: .166666672
        value: .0494483151
        inSlope: -3.09760928
        outSlope: -3.09760928
        tangentMode: 0
      - time: .183333337
        value: -.0213351566
        inSlope: -5.13735723
        outSlope: -5.13735723
        tangentMode: 0
      - time: .200000003
        value: -.121796906
        inSlope: -5.46136856
        outSlope: -5.46136856
        tangentMode: 0
      - time: .216666669
        value: -.203380749
        inSlope: -2.9355309
        outSlope: -2.9355309
        tangentMode: 0
      - time: .233333334
        value: -.219647929
        inSlope: 2.52269936
        outSlope: 2.52269936
        tangentMode: 0
      - time: .25
        value: -.119290777
        inSlope: 8.06039047
        outSlope: 8.06039047
        tangentMode: 0
      - time: .266666681
        value: .0490318686
        inSlope: 8.83429813
        outSlope: 8.83429813
        tangentMode: 0
      - time: .283333361
        value: .175186068
        inSlope: 5.46016979
        outSlope: 5.46016979
        tangentMode: 0
      - time: .300000042
        value: .231037676
        inSlope: 2.66222525
        outSlope: 2.66222525
        tangentMode: 0
      - time: .316666722
        value: .263926983
        inSlope: 1.43323004
        outSlope: 1.43323004
        tangentMode: 0
      - time: .333333403
        value: .278812051
        inSlope: .492761612
        outSlope: .492761612
        tangentMode: 0
      - time: .350000083
        value: .280352384
        inSlope: -.173940212
        outSlope: -.173940212
        tangentMode: 0
      - time: .366666764
        value: .273014039
        inSlope: -.574492931
        outSlope: -.574492931
        tangentMode: 0
      - time: .383333445
        value: .261202604
        inSlope: -.709863007
        outSlope: -.709863007
        tangentMode: 0
      - time: .400000125
        value: .249351919
        inSlope: -.577590883
        outSlope: -.577590883
        tangentMode: 0
      - time: .416666806
        value: .241949558
        inSlope: -.175376564
        outSlope: -.175376564
        tangentMode: 0
      - time: .433333337
        value: .243506014
        inSlope: .0933881253
        outSlope: .0933881253
        tangentMode: 0
      m_PreInfinity: 2
      m_PostInfinity: 2
    attribute: m_LocalRotation.z
    path: 
    classID: 4
    script: {fileID: 0}
  - curve:
      serializedVersion: 2
      m_Curve:
      - time: 0
        value: .999990761
        inSlope: -.0128459921
        outSlope: -.0128459921
        tangentMode: 0
      - time: .0166666675
        value: .999776661
        inSlope: -.0362259112
        outSlope: -.0362259112
        tangentMode: 0
      - time: .0333333351
        value: .998783231
        inSlope: -.08024811
        outSlope: -.08024811
        tangentMode: 0
      - time: .0500000045
        value: .997101724
        inSlope: -.105795264
        outSlope: -.105795264
        tangentMode: 0
      - time: .0666666701
        value: .995256722
        inSlope: -.0912183598
        outSlope: -.0912183598
        tangentMode: 0
      - time: .0833333358
        value: .994061112
        inSlope: -.0478720702
        outSlope: -.0478720702
        tangentMode: 0
      - time: .100000001
        value: .993660986
        inSlope: -.00664472627
        outSlope: -.00664472627
        tangentMode: 0
      - time: .116666667
        value: .993839622
        inSlope: .0351905711
        outSlope: .0351905711
        tangentMode: 0
      - time: .13333334
        value: .994834006
        inSlope: .0839817449
        outSlope: .0839817449
        tangentMode: 0
      - time: .150000006
        value: .996639013
        inSlope: .118280068
        outSlope: .118280068
        tangentMode: 0
      - time: .166666672
        value: .998776674
        inSlope: .0940007046
        outSlope: .0940007046
        tangentMode: 0
      - time: .183333337
        value: .99977237
        inSlope: -.186649576
        outSlope: -.186649576
        tangentMode: 0
      - time: .200000003
        value: .992555022
        inSlope: -.62017864
        outSlope: -.62017864
        tangentMode: 0
      - time: .216666669
        value: .979099751
        inSlope: -.509274662
        outSlope: -.509274662
        tangentMode: 0
      - time: .233333334
        value: .975579202
        inSlope: .412788451
        outSlope: .412788451
        tangentMode: 0
      - time: .25
        value: .992859364
        inSlope: .696540952
        outSlope: .696540952
        tangentMode: 0
      - time: .266666681
        value: .998797238
        inSlope: -.249720603
        outSlope: -.249720603
        tangentMode: 0
      - time: .283333361
        value: .984535336
        inSlope: -.775572598
        outSlope: -.775572598
        tangentMode: 0
      - time: .300000042
        value: .972944796
        inSlope: -.59977901
        outSlope: -.59977901
        tangentMode: 0
      - time: .316666722
        value: .964542687
        inSlope: -.37797302
        outSlope: -.37797302
        tangentMode: 0
      - time: .333333403
        value: .960345685
        inSlope: -.139365673
        outSlope: -.139365673
        tangentMode: 0
      - time: .350000083
        value: .959897161
        inSlope: .0499301739
        outSlope: .0499301739
        tangentMode: 0
      - time: .366666764
        value: .962010026
        inSlope: .161604747
        outSlope: .161604747
        tangentMode: 0
      - time: .383333445
        value: .96528399
        inSlope: .192087129
        outSlope: .192087129
        tangentMode: 0
      - time: .400000125
        value: .968412936
        inSlope: .150144562
        outSlope: .150144562
        tangentMode: 0
      - time: .416666806
        value: .970288813
        inSlope: .0445942655
        outSlope: .0445942655
        tangentMode: 0
      - time: .433333337
        value: .969899416
        inSlope: -.0233640186
        outSlope: -.0233640186
        tangentMode: 0
      m_PreInfinity: 2
      m_PostInfinity: 2
    attribute: m_LocalRotation.w
    path: 
    classID: 4
    script: {fileID: 0}
  - curve:
      serializedVersion: 2
      m_Curve:
      - time: 0
        value: 1
        inSlope: Infinity
        outSlope: Infinity
        tangentMode: 31
      - time: .0500000007
        value: 0
        inSlope: Infinity
        outSlope: Infinity
        tangentMode: 31
      - time: .150000006
        value: 1
        inSlope: Infinity
        outSlope: Infinity
        tangentMode: 31
      - time: .349999994
        value: 0
        inSlope: Infinity
        outSlope: Infinity
        tangentMode: 31
      - time: .433333337
        value: 1
        inSlope: Infinity
        outSlope: Infinity
        tangentMode: 31
      m_PreInfinity: 2
      m_PostInfinity: 2
    attribute: m_IsActive
    path: muzzleflashmesh
    classID: 1
    script: {fileID: 0}
  m_EulerEditorCurves:
  - curve:
      serializedVersion: 2
      m_Curve:
      - time: 0
        value: 0
        inSlope: 0
        outSlope: 0
        tangentMode: 10
      - time: .0833333358
        value: 0
        inSlope: 0
        outSlope: 0
        tangentMode: 10
      - time: .166666672
        value: 0
        inSlope: 0
        outSlope: 0
        tangentMode: 10
      - time: .233333334
        value: 0
        inSlope: 0
        outSlope: 0
        tangentMode: 10
      - time: .283333331
        value: 0
        inSlope: 0
        outSlope: 0
        tangentMode: 10
      - time: .433333337
        value: 0
        inSlope: 0
        outSlope: 0
        tangentMode: 10
      m_PreInfinity: 2
      m_PostInfinity: 2
    attribute: localEulerAnglesBaked.x
    path: 
    classID: 4
    script: {fileID: 0}
  - curve:
      serializedVersion: 2
      m_Curve:
      - time: 0
        value: 0
        inSlope: 0
        outSlope: 0
        tangentMode: 10
      - time: .0833333358
        value: 0
        inSlope: 0
        outSlope: 0
        tangentMode: 10
      - time: .166666672
        value: 0
        inSlope: 0
        outSlope: 0
        tangentMode: 10
      - time: .233333334
        value: 0
        inSlope: 0
        outSlope: 0
        tangentMode: 10
      - time: .283333331
        value: 0
        inSlope: 0
        outSlope: 0
        tangentMode: 10
      - time: .433333337
        value: 0
        inSlope: 0
        outSlope: 0
        tangentMode: 10
      m_PreInfinity: 2
      m_PostInfinity: 2
    attribute: localEulerAnglesBaked.y
    path: 
    classID: 4
    script: {fileID: 0}
  - curve:
      serializedVersion: 2
      m_Curve:
      - time: 0
        value: -.492553711
        inSlope: 155.850037
        outSlope: 155.850037
        tangentMode: 10
      - time: .0833333358
        value: 12.4949493
        inSlope: 36.9673462
        outSlope: 36.9673462
        tangentMode: 10
      - time: .166666672
        value: 5.66867065
        inSlope: -273.798035
        outSlope: -273.798035
        tangentMode: 10
      - time: .233333334
        value: -25.376709
        inSlope: 222.716309
        outSlope: 222.716309
        tangentMode: 10
      - time: .283333331
        value: 20.1789551
        inSlope: 482.250549
        outSlope: 482.250549
        tangentMode: 10
      - time: .433333337
        value: 28.1871185
        inSlope: 53.3877525
        outSlope: 53.3877525
        tangentMode: 10
      m_PreInfinity: 2
      m_PostInfinity: 2
    attribute: localEulerAnglesBaked.z
    path: 
    classID: 4
    script: {fileID: 0}
  m_HasGenericRootTransform: 1
  m_HasMotionFloatCurves: 0
  m_GenerateMotionCurves: 0
  m_Events: []
