%YAML 1.1
%TAG !u! tag:unity3d.com,2011:
--- !u!21 &2100000
Material:
  serializedVersion: 6
  m_ObjectHideFlags: 0
  m_PrefabParentObject: {fileID: 0}
  m_PrefabInternal: {fileID: 0}
  m_Name: Night Moon Low Overcast2
  m_Shader: {fileID: 10700, guid: 0000000000000000f000000000000000, type: 0}
  m_ShaderKeywords: 
  m_LightmapFlags: 5
  m_CustomRenderQueue: -1
  stringTagMap: {}
  m_SavedProperties:
    serializedVersion: 2
    m_TexEnvs:
      data:
        first:
          name: _MainTex
        second:
          m_Texture: {fileID: 0}
          m_Scale: {x: 1, y: 1}
          m_Offset: {x: 0, y: 0}
      data:
        first:
          name: _FrontTex
        second:
          m_Texture: {fileID: 2800000, guid: 5c494cf0b9c534aaf81c5d2631508bd1, type: 3}
          m_Scale: {x: 1, y: 1}
          m_Offset: {x: 0, y: 0}
      data:
        first:
          name: _BackTex
        second:
          m_Texture: {fileID: 2800000, guid: 676209ff7434c4f4e931f464bed1126a, type: 3}
          m_Scale: {x: 1, y: 1}
          m_Offset: {x: 0, y: 0}
      data:
        first:
          name: _LeftTex
        second:
          m_Texture: {fileID: 2800000, guid: da9c0f955207542b9bc8510e0f98cd20, type: 3}
          m_Scale: {x: 1, y: 1}
          m_Offset: {x: 0, y: 0}
      data:
        first:
          name: _RightTex
        second:
          m_Texture: {fileID: 2800000, guid: a6989c33ae2524ef1a20f5f01080142f, type: 3}
          m_Scale: {x: 1, y: 1}
          m_Offset: {x: 0, y: 0}
      data:
        first:
          name: _UpTex
        second:
          m_Texture: {fileID: 2800000, guid: c663a65f2e0a3475ca21ec17d52cf206, type: 3}
          m_Scale: {x: 1, y: 1}
          m_Offset: {x: 0, y: 0}
      data:
        first:
          name: _DownTex
        second:
          m_Texture: {fileID: 2800000, guid: b92ffe30dfb0e41cfac07e1cbd5e1624, type: 3}
          m_Scale: {x: 1, y: 1}
          m_Offset: {x: 0, y: 0}
    m_Floats: {}
    m_Colors:
      data:
        first:
          name: _Color
        second: {r: 1, g: 1, b: 1, a: 1}
