%YAML 1.1
%TAG !u! tag:unity3d.com,2011:
--- !u!21 &2100000
Material:
  serializedVersion: 6
  m_ObjectHideFlags: 0
  m_PrefabParentObject: {fileID: 0}
  m_PrefabInternal: {fileID: 0}
  m_Name: Day Sun Low EpicHigh
  m_Shader: {fileID: 10700, guid: 0000000000000000f000000000000000, type: 0}
  m_ShaderKeywords: 
  m_LightmapFlags: 5
  m_CustomRenderQueue: -1
  stringTagMap: {}
  m_SavedProperties:
    serializedVersion: 2
    m_TexEnvs:
      data:
        first:
          name: _MainTex
        second:
          m_Texture: {fileID: 0}
          m_Scale: {x: 1, y: 1}
          m_Offset: {x: 0, y: 0}
      data:
        first:
          name: _FrontTex
        second:
          m_Texture: {fileID: 2800000, guid: 9d0ad5e3cbc0945589c67176b2cda1be, type: 3}
          m_Scale: {x: 1, y: 1}
          m_Offset: {x: 0, y: 0}
      data:
        first:
          name: _BackTex
        second:
          m_Texture: {fileID: 2800000, guid: f4d88b7a48a6d49848c2fa60d43f5bd7, type: 3}
          m_Scale: {x: 1, y: 1}
          m_Offset: {x: 0, y: 0}
      data:
        first:
          name: _LeftTex
        second:
          m_Texture: {fileID: 2800000, guid: f3a7443164ac244738660e5d0a7b3124, type: 3}
          m_Scale: {x: 1, y: 1}
          m_Offset: {x: 0, y: 0}
      data:
        first:
          name: _RightTex
        second:
          m_Texture: {fileID: 2800000, guid: 87b6f7897424d4bf6bda82e168b9bfc2, type: 3}
          m_Scale: {x: 1, y: 1}
          m_Offset: {x: 0, y: 0}
      data:
        first:
          name: _UpTex
        second:
          m_Texture: {fileID: 2800000, guid: bc88dbba517514a57b454d88455b8387, type: 3}
          m_Scale: {x: 1, y: 1}
          m_Offset: {x: 0, y: 0}
      data:
        first:
          name: _DownTex
        second:
          m_Texture: {fileID: 2800000, guid: f9e2866476c724e90bc1a5a2946922a6, type: 3}
          m_Scale: {x: 1, y: 1}
          m_Offset: {x: 0, y: 0}
    m_Floats: {}
    m_Colors:
      data:
        first:
          name: _Color
        second: {r: 1, g: 1, b: 1, a: 1}
