%YAML 1.1
%TAG !u! tag:unity3d.com,2011:
--- !u!1 &156200
GameObject:
  m_ObjectHideFlags: 0
  m_PrefabParentObject: {fileID: 0}
  m_PrefabInternal: {fileID: 100100000}
  serializedVersion: 4
  m_Component:
  - 4: {fileID: 488510}
  - 114: {fileID: 11451436}
  m_Layer: 0
  m_Name: ElectricBeam
  m_TagString: Untagged
  m_Icon: {fileID: 0}
  m_NavMeshLayer: 0
  m_StaticEditorFlags: 0
  m_IsActive: 1
--- !u!4 &488510
Transform:
  m_ObjectHideFlags: 1
  m_PrefabParentObject: {fileID: 0}
  m_PrefabInternal: {fileID: 100100000}
  m_GameObject: {fileID: 156200}
  m_LocalRotation: {x: 0, y: 0, z: 0, w: 1}
  m_LocalPosition: {x: 0, y: 0, z: 0}
  m_LocalScale: {x: 1, y: 1, z: 1}
  m_Children: []
  m_Father: {fileID: 0}
  m_RootOrder: 0
--- !u!114 &11451436
MonoBehaviour:
  m_ObjectHideFlags: 1
  m_PrefabParentObject: {fileID: 0}
  m_PrefabInternal: {fileID: 100100000}
  m_GameObject: {fileID: 156200}
  m_Enabled: 1
  m_EditorHideFlags: 0
  m_Script: {fileID: 11500000, guid: 1bb357a9521336241ac0cfc54e0dfeb2, type: 3}
  m_Name: 
  m_EditorClassIdentifier: 
  Target: {fileID: 0}
  Coil: {fileID: 2100000, guid: c4b68c2923fa8ae4fb84a8422bf66a25, type: 2}
  Beam: {fileID: 2100000, guid: b04800f2181657e4d9c9d5c11c9abed6, type: 2}
  CoilSegments: 10
  BeamSegments: 10
  Coils: 6
  CoilWidth:
    Min: .0199999996
    Max: .0199999996
  BeamWidth:
    Min: 3
    Max: 3
  Damping:
    Min: 0
    Max: .300000012
  Amplitude:
    Min: .200000003
    Max: .200000003
  ChargeDuration:
    Min: .0199999996
    Max: .100000001
--- !u!1001 &100100000
Prefab:
  m_ObjectHideFlags: 1
  serializedVersion: 2
  m_Modification:
    m_TransformParent: {fileID: 0}
    m_Modifications:
    - target: {fileID: 0}
      propertyPath: Coils
      value: 6
      objectReference: {fileID: 0}
    - target: {fileID: 0}
      propertyPath: ChargeDuration.Min
      value: .0199999996
      objectReference: {fileID: 0}
    - target: {fileID: 0}
      propertyPath: ChargeDuration.Max
      value: .100000001
      objectReference: {fileID: 0}
    - target: {fileID: 0}
      propertyPath: BeamWidth.Min
      value: 3
      objectReference: {fileID: 0}
    - target: {fileID: 0}
      propertyPath: BeamWidth.Max
      value: 3
      objectReference: {fileID: 0}
    - target: {fileID: 0}
      propertyPath: Amplitude.Min
      value: 1
      objectReference: {fileID: 0}
    - target: {fileID: 0}
      propertyPath: Amplitude.Max
      value: 1
      objectReference: {fileID: 0}
    m_RemovedComponents: []
  m_ParentPrefab: {fileID: 0}
  m_RootGameObject: {fileID: 156200}
  m_IsPrefabParent: 1
